[gd_resource type="SampleLibrary" load_steps=3 format=1]

[ext_resource path="res://sounds/oyama punch.wav" type="Sample" id=1]
[ext_resource path="res://sounds/kick.wav" type="Sample" id=2]

[resource]

samples/kick = { "db":0.0, "pitch":1.0, "sample":ExtResource( 2 ) }
samples/hit = { "db":0.0, "pitch":1.0, "sample":ExtResource( 1 ) }

