[gd_scene load_steps=6 format=1]

[ext_resource path="res://textures/pio inicjallo got2.png" type="Texture" id=1]
[ext_resource path="res://scripts/pio_intro_video.gd" type="Script" id=2]
[ext_resource path="res://textures/pio inicjallo got1.png" type="Texture" id=3]
[ext_resource path="res://scenes/button_hint.tscn" type="PackedScene" id=4]

[sub_resource type="Animation" id=1]

resource/name = "intro"
length = 24.0
loop = false
step = 0.1
tracks/0/type = "value"
tracks/0/path = NodePath(".:texture")
tracks/0/interp = 1
tracks/0/imported = false
tracks/0/keys = { "times":FloatArray( 0, 12 ), "transitions":FloatArray( 1, 1 ), "update":1, "values":[ ExtResource( 3 ), ExtResource( 1 ) ] }
tracks/1/type = "method"
tracks/1/path = NodePath(".")
tracks/1/interp = 1
tracks/1/imported = false
tracks/1/keys = { "times":FloatArray( 23.6 ), "transitions":FloatArray( 1 ), "values":[ { "args":[  ], "method":"next_scene" } ] }

[node name="pio intro" type="TextureFrame"]

focus/ignore_mouse = true
focus/stop_mouse = true
size_flags/horizontal = 2
size_flags/vertical = 2
margin/left = 0.0
margin/top = 0.0
margin/right = 320.0
margin/bottom = 240.0
texture = ExtResource( 1 )
stretch_mode = 0
script/script = ExtResource( 2 )
__meta__ = { "_edit_lock_":true }

[node name="AnimationPlayer" type="AnimationPlayer" parent="."]

playback/process_mode = 1
playback/default_blend_time = 0.0
root/root = NodePath("..")
anims/intro = SubResource( 1 )
playback/active = true
playback/speed = 1.0
blend_times = [  ]
autoplay = "intro"

[node name="unlock" type="Timer" parent="."]

process_mode = 1
wait_time = 0.5
one_shot = true
autostart = true

[node name="button_hint" parent="." instance=ExtResource( 4 )]

transform/pos = Vector2( 263.706, 224.237 )
frame = 3

[connection signal="timeout" from="unlock" to="." method="_on_unlock_timeout"]


